{
  "items": [
    {
      "external_urls": {
        "spotify": "https://open.spotify.com/artist/0nq64XZMWV1s7XHXIkdH7K"
      },
      "followers": {
        "href": null,
        "total": null
      },
      "genres": [
        "alternative emo"
      ],
      "href": "https://api.spotify.com/v1/artists/0nq64XZMWV1s7XHXIkdH7K",
      "id": "0nq64XZMWV1s7XHXIkdH7K",
      "images": [
        {
          "height": 563,
          "url": "https://i.scdn.co/image/1074eb421499f17020686ac661c8a3c9e59bf1c3",
          "width": 1000
        },
        {
          "height": 360,
          "url": "https://i.scdn.co/image/20fea826d56a848840be63240361567641218dea",
          "width": 640
        },
        {
          "height": 113,
          "url": "https://i.scdn.co/image/b7030d342efe33a98c1a8cd37b04e2bb74d8d46b",
          "width": 200
        },
        {
          "height": 36,
          "url": "https://i.scdn.co/image/ce8f4624e5ac25095ab96cec1e4fc25f068b1648",
          "width": 64
        }
      ],
      "name": "The Wonder Years",
      "popularity": 56,
      "type": "artist",
      "uri": "spotify:artist:0nq64XZMWV1s7XHXIkdH7K"
    },
    {
      "external_urls": {
        "spotify": "https://open.spotify.com/artist/1HxXNvsraqrsgfmju1yKk8"
      },
      "followers": {
        "href": null,
        "total": null
      },
      "genres": [],
      "href": "https://api.spotify.com/v1/artists/1HxXNvsraqrsgfmju1yKk8",
      "id": "1HxXNvsraqrsgfmju1yKk8",
      "images": [
        {
          "height": 667,
          "url": "https://i.scdn.co/image/fadb1d2c6b512dcbe41dfb3319421a7ad0830fea",
          "width": 1000
        },
        {
          "height": 427,
          "url": "https://i.scdn.co/image/01639641eb28c9d3faaa698f18e2a95a73c25358",
          "width": 640
        },
        {
          "height": 133,
          "url": "https://i.scdn.co/image/5b0f9b4ea3e6d8ff49e818c4c09f687e2d3a1616",
          "width": 200
        },
        {
          "height": 43,
          "url": "https://i.scdn.co/image/2210f7e5e28395cbef72a43ec0c8dafac71a88dc",
          "width": 64
        }
      ],
      "name": "Modern Baseball",
      "popularity": 63,
      "type": "artist",
      "uri": "spotify:artist:1HxXNvsraqrsgfmju1yKk8"
    },
    {
      "external_urls": {
        "spotify": "https://open.spotify.com/artist/16oZKvXb6WkQlVAjwo2Wbg"
      },
      "followers": {
        "href": null,
        "total": null
      },
      "genres": [],
      "href": "https://api.spotify.com/v1/artists/16oZKvXb6WkQlVAjwo2Wbg",
      "id": "16oZKvXb6WkQlVAjwo2Wbg",
      "images": [
        {
          "height": 1503,
          "url": "https://i.scdn.co/image/328d7b6317152ba028a2610c5d5e86f5ee0036fa",
          "width": 1000
        },
        {
          "height": 962,
          "url": "https://i.scdn.co/image/2dd39a9c28930e106f7f7abbc9402ff2034dd6f2",
          "width": 640
        },
        {
          "height": 301,
          "url": "https://i.scdn.co/image/08f5c1191810806f8d7d0c94464cabc173e77e33",
          "width": 200
        },
        {
          "height": 96,
          "url": "https://i.scdn.co/image/40672cf089f7d28a86b30162a18b6b96251fc7e7",
          "width": 64
        }
      ],
      "name": "The Lumineers",
      "popularity": 78,
      "type": "artist",
      "uri": "spotify:artist:16oZKvXb6WkQlVAjwo2Wbg"
    },
    {
      "external_urls": {
        "spotify": "https://open.spotify.com/artist/1ecdmsD235x2zHCKfdL3cF"
      },
      "followers": {
        "href": null,
        "total": null
      },
      "genres": [
        "alternative emo"
      ],
      "href": "https://api.spotify.com/v1/artists/1ecdmsD235x2zHCKfdL3cF",
      "id": "1ecdmsD235x2zHCKfdL3cF",
      "images": [
        {
          "height": 784,
          "url": "https://i.scdn.co/image/512a05e76623e508bf42ef75b2b2766c97b9bb3c",
          "width": 1000
        },
        {
          "height": 502,
          "url": "https://i.scdn.co/image/fcfad0720642e8ba2c8a50b05cf693462ce9e074",
          "width": 640
        },
        {
          "height": 157,
          "url": "https://i.scdn.co/image/46d706c0d8b6c2b49ac9b3d1be2fb41a72f83c8b",
          "width": 200
        },
        {
          "height": 50,
          "url": "https://i.scdn.co/image/8f7b73b0959de2ba63855b03fb2529e4979e9113",
          "width": 64
        }
      ],
      "name": "Into It. Over It.",
      "popularity": 44,
      "type": "artist",
      "uri": "spotify:artist:1ecdmsD235x2zHCKfdL3cF"
    },
    {
      "external_urls": {
        "spotify": "https://open.spotify.com/artist/6meTcQ79DrfkIuSLPZkpBg"
      },
      "followers": {
        "href": null,
        "total": null
      },
      "genres": [
        "alternative emo"
      ],
      "href": "https://api.spotify.com/v1/artists/6meTcQ79DrfkIuSLPZkpBg",
      "id": "6meTcQ79DrfkIuSLPZkpBg",
      "images": [
        {
          "height": 1000,
          "url": "https://i.scdn.co/image/35f0736fff8944f2a97bdbbe89a1b6a4bac625c5",
          "width": 1000
        },
        {
          "height": 640,
          "url": "https://i.scdn.co/image/0b7497f71d79b4d6940c37acd067db359ac24475",
          "width": 640
        },
        {
          "height": 200,
          "url": "https://i.scdn.co/image/34885ccaea60c39d385bbf3ba0ad4c68ad2c939a",
          "width": 200
        },
        {
          "height": 64,
          "url": "https://i.scdn.co/image/69a6cbaf4047d810f45b03570e6435b8b6d07e42",
          "width": 64
        }
      ],
      "name": "The Story So Far",
      "popularity": 61,
      "type": "artist",
      "uri": "spotify:artist:6meTcQ79DrfkIuSLPZkpBg"
    },
    {
      "external_urls": {
        "spotify": "https://open.spotify.com/artist/6dEtLwgmSI0hmfwTSjy8cw"
      },
      "followers": {
        "href": null,
        "total": null
      },
      "genres": [],
      "href": "https://api.spotify.com/v1/artists/6dEtLwgmSI0hmfwTSjy8cw",
      "id": "6dEtLwgmSI0hmfwTSjy8cw",
      "images": [
        {
          "height": 563,
          "url": "https://i.scdn.co/image/05bead6a0c3963e19c826a6dc8de1cbea19a3c30",
          "width": 1000
        },
        {
          "height": 360,
          "url": "https://i.scdn.co/image/c25fc1cb3ba78f27577a8bfaf990666212ce101e",
          "width": 640
        },
        {
          "height": 113,
          "url": "https://i.scdn.co/image/b7cb19ea64caf34f7803da209e8aaa244fcc8443",
          "width": 200
        },
        {
          "height": 36,
          "url": "https://i.scdn.co/image/56c0376c83b4c3ab105000e7ced52e6645561e6b",
          "width": 64
        }
      ],
      "name": "Real Friends",
      "popularity": 57,
      "type": "artist",
      "uri": "spotify:artist:6dEtLwgmSI0hmfwTSjy8cw"
    },
    {
      "external_urls": {
        "spotify": "https://open.spotify.com/artist/19zqV9DV3txjMUjHvltl2D"
      },
      "followers": {
        "href": null,
        "total": null
      },
      "genres": [
        "pop punk"
      ],
      "href": "https://api.spotify.com/v1/artists/19zqV9DV3txjMUjHvltl2D",
      "id": "19zqV9DV3txjMUjHvltl2D",
      "images": [
        {
          "height": 1629,
          "url": "https://i.scdn.co/image/97c90cf4b3bd05732e10439660eb70e7a424605e",
          "width": 1000
        },
        {
          "height": 1043,
          "url": "https://i.scdn.co/image/98218119140d1d91aae38da9708c81d37e46b23c",
          "width": 640
        },
        {
          "height": 326,
          "url": "https://i.scdn.co/image/848871c8d42681395df01327fa58c534978bf16f",
          "width": 200
        },
        {
          "height": 104,
          "url": "https://i.scdn.co/image/57058b85438c9b47cd2f881ba211cd26e9873ae8",
          "width": 64
        }
      ],
      "name": "Motion City Soundtrack",
      "popularity": 56,
      "type": "artist",
      "uri": "spotify:artist:19zqV9DV3txjMUjHvltl2D"
    },
    {
      "external_urls": {
        "spotify": "https://open.spotify.com/artist/0q74f5UdR3j14Lis4AKKxq"
      },
      "followers": {
        "href": null,
        "total": null
      },
      "genres": [],
      "href": "https://api.spotify.com/v1/artists/0q74f5UdR3j14Lis4AKKxq",
      "id": "0q74f5UdR3j14Lis4AKKxq",
      "images": [
        {
          "height": 640,
          "url": "https://i.scdn.co/image/18d7ba152e51496982d986f15e89d26bf7166c5b",
          "width": 640
        },
        {
          "height": 300,
          "url": "https://i.scdn.co/image/a2369658a0575f58f13844e51a61b59bfb0c611c",
          "width": 300
        },
        {
          "height": 64,
          "url": "https://i.scdn.co/image/d6bf3e5013bf4127614d71e7a503352a1db37feb",
          "width": 64
        }
      ],
      "name": "ROAM",
      "popularity": 41,
      "type": "artist",
      "uri": "spotify:artist:0q74f5UdR3j14Lis4AKKxq"
    },
    {
      "external_urls": {
        "spotify": "https://open.spotify.com/artist/7gjAu1qr5C2grXeQFFOGeh"
      },
      "followers": {
        "href": null,
        "total": null
      },
      "genres": [
        "indietronica",
        "synthpop"
      ],
      "href": "https://api.spotify.com/v1/artists/7gjAu1qr5C2grXeQFFOGeh",
      "id": "7gjAu1qr5C2grXeQFFOGeh",
      "images": [
        {
          "height": 1000,
          "url": "https://i.scdn.co/image/553e496e4e2bef933765d72370640b03a42cfd4e",
          "width": 1000
        },
        {
          "height": 640,
          "url": "https://i.scdn.co/image/3b19e1a29de4ace6a535f972323da09a84cac8f4",
          "width": 640
        },
        {
          "height": 200,
          "url": "https://i.scdn.co/image/4ba8c437d5853e900a85bcf06c402978eab95c40",
          "width": 200
        },
        {
          "height": 64,
          "url": "https://i.scdn.co/image/3e8c40b45082a0f83bdb101f6f9d47b8d507ec04",
          "width": 64
        }
      ],
      "name": "Passion Pit",
      "popularity": 66,
      "type": "artist",
      "uri": "spotify:artist:7gjAu1qr5C2grXeQFFOGeh"
    },
    {
      "external_urls": {
        "spotify": "https://open.spotify.com/artist/5883GOq7JAuNnEfnM73J2b"
      },
      "followers": {
        "href": null,
        "total": null
      },
      "genres": [],
      "href": "https://api.spotify.com/v1/artists/5883GOq7JAuNnEfnM73J2b",
      "id": "5883GOq7JAuNnEfnM73J2b",
      "images": [
        {
          "height": 640,
          "url": "https://i.scdn.co/image/0d1bb15e8a40d7cf20d9a9cf876ab10ae8c477f3",
          "width": 640
        },
        {
          "height": 300,
          "url": "https://i.scdn.co/image/bc815abd83f78301d04b675c5ae7054e00fb7d41",
          "width": 300
        },
        {
          "height": 64,
          "url": "https://i.scdn.co/image/3fa87aebb60395f191b7d4b3f51f8857e509f6bf",
          "width": 64
        }
      ],
      "name": "That Was Something",
      "popularity": 9,
      "type": "artist",
      "uri": "spotify:artist:5883GOq7JAuNnEfnM73J2b"
    },
    {
      "external_urls": {
        "spotify": "https://open.spotify.com/artist/1qqdO7xMptucPDMopsOdkr"
      },
      "followers": {
        "href": null,
        "total": null
      },
      "genres": [],
      "href": "https://api.spotify.com/v1/artists/1qqdO7xMptucPDMopsOdkr",
      "id": "1qqdO7xMptucPDMopsOdkr",
      "images": [
        {
          "height": 946,
          "url": "https://i.scdn.co/image/ced86571a2b91832f9ed499ae4ba5a6c5007a97a",
          "width": 1000
        },
        {
          "height": 606,
          "url": "https://i.scdn.co/image/5c0a28714fca71242215992ae6869851d6c29287",
          "width": 640
        },
        {
          "height": 189,
          "url": "https://i.scdn.co/image/91ab8b82d30bb205e44e4e9c53a3e197ff61b6e8",
          "width": 200
        },
        {
          "height": 61,
          "url": "https://i.scdn.co/image/97715d88154349d675e1ce162258d197c375bdc5",
          "width": 64
        }
      ],
      "name": "State Champs",
      "popularity": 58,
      "type": "artist",
      "uri": "spotify:artist:1qqdO7xMptucPDMopsOdkr"
    },
    {
      "external_urls": {
        "spotify": "https://open.spotify.com/artist/2TM0qnbJH4QPhGMCdPt7fH"
      },
      "followers": {
        "href": null,
        "total": null
      },
      "genres": [],
      "href": "https://api.spotify.com/v1/artists/2TM0qnbJH4QPhGMCdPt7fH",
      "id": "2TM0qnbJH4QPhGMCdPt7fH",
      "images": [
        {
          "height": 1000,
          "url": "https://i.scdn.co/image/d8d64269501c031ff8a2206e6c6d10dd6595ef8e",
          "width": 1000
        },
        {
          "height": 640,
          "url": "https://i.scdn.co/image/f62fb752c72505e70f2761594bb8e58113340457",
          "width": 640
        },
        {
          "height": 200,
          "url": "https://i.scdn.co/image/25a3e0da820fe48d77f0ff2704c92ae73e35040f",
          "width": 200
        },
        {
          "height": 64,
          "url": "https://i.scdn.co/image/4bcbb2f661b15d4a3cf6c1fbbe201b1f8da56d18",
          "width": 64
        }
      ],
      "name": "Neck Deep",
      "popularity": 62,
      "type": "artist",
      "uri": "spotify:artist:2TM0qnbJH4QPhGMCdPt7fH"
    },
    {
      "external_urls": {
        "spotify": "https://open.spotify.com/artist/3LqgxOMfONGBf034jekl9H"
      },
      "followers": {
        "href": null,
        "total": null
      },
      "genres": [],
      "href": "https://api.spotify.com/v1/artists/3LqgxOMfONGBf034jekl9H",
      "id": "3LqgxOMfONGBf034jekl9H",
      "images": [
        {
          "height": 640,
          "url": "https://i.scdn.co/image/85a1ecf114768e3b803c7889e07fdc59a5169791",
          "width": 640
        },
        {
          "height": 300,
          "url": "https://i.scdn.co/image/7c0bb848a077d3366ae83e3052b4449aa802aa99",
          "width": 300
        },
        {
          "height": 64,
          "url": "https://i.scdn.co/image/26e4fd1b4ea7129639291edd3a9e11b6147d2d1f",
          "width": 64
        }
      ],
      "name": "Forever Came Calling",
      "popularity": 33,
      "type": "artist",
      "uri": "spotify:artist:3LqgxOMfONGBf034jekl9H"
    },
    {
      "external_urls": {
        "spotify": "https://open.spotify.com/artist/3ImqpXKKgkH5VydfgX1hd4"
      },
      "followers": {
        "href": null,
        "total": null
      },
      "genres": [],
      "href": "https://api.spotify.com/v1/artists/3ImqpXKKgkH5VydfgX1hd4",
      "id": "3ImqpXKKgkH5VydfgX1hd4",
      "images": [
        {
          "height": 563,
          "url": "https://i.scdn.co/image/6cb8914290dcba67e4371b8682b414a9b2bd3148",
          "width": 1000
        },
        {
          "height": 360,
          "url": "https://i.scdn.co/image/cdc5444f493b488ec72c2b4b41cefa20e132f6b7",
          "width": 640
        },
        {
          "height": 113,
          "url": "https://i.scdn.co/image/edc14edfebf64044f9d34cb3ce9e478d8780c5b4",
          "width": 200
        },
        {
          "height": 36,
          "url": "https://i.scdn.co/image/d8e28f8e64b548c6dfdb4d9444443b252296b9b8",
          "width": 64
        }
      ],
      "name": "Say Anything",
      "popularity": 56,
      "type": "artist",
      "uri": "spotify:artist:3ImqpXKKgkH5VydfgX1hd4"
    },
    {
      "external_urls": {
        "spotify": "https://open.spotify.com/artist/59cc2f0IvGu6YVEtY4cS0p"
      },
      "followers": {
        "href": null,
        "total": null
      },
      "genres": [],
      "href": "https://api.spotify.com/v1/artists/59cc2f0IvGu6YVEtY4cS0p",
      "id": "59cc2f0IvGu6YVEtY4cS0p",
      "images": [
        {
          "height": 1003,
          "url": "https://i.scdn.co/image/265ee02a4b0df839b6b810d24f78903ce1cdd73b",
          "width": 1000
        },
        {
          "height": 642,
          "url": "https://i.scdn.co/image/2493f0b0be350407f10796be159ff1c12b7669ee",
          "width": 640
        },
        {
          "height": 201,
          "url": "https://i.scdn.co/image/0006fe9bce9206fa9e889e805274925a02ffda1c",
          "width": 200
        },
        {
          "height": 64,
          "url": "https://i.scdn.co/image/0310ccf2aea6a0a5c0c3ecdc416907e53bcdafe4",
          "width": 64
        }
      ],
      "name": "Aaron West & The Roaring Twenties",
      "popularity": 43,
      "type": "artist",
      "uri": "spotify:artist:59cc2f0IvGu6YVEtY4cS0p"
    },
    {
      "external_urls": {
        "spotify": "https://open.spotify.com/artist/2FcxTTXQKgTdJzTeACMlVU"
      },
      "followers": {
        "href": null,
        "total": null
      },
      "genres": [
        "alternative emo"
      ],
      "href": "https://api.spotify.com/v1/artists/2FcxTTXQKgTdJzTeACMlVU",
      "id": "2FcxTTXQKgTdJzTeACMlVU",
      "images": [
        {
          "height": 750,
          "url": "https://i.scdn.co/image/8cfa59be21952c14bd29a5da53ce683f066b3053",
          "width": 1000
        },
        {
          "height": 480,
          "url": "https://i.scdn.co/image/8b6bb6c0a8ada4702f432b47ccac57774bf43ef5",
          "width": 640
        },
        {
          "height": 150,
          "url": "https://i.scdn.co/image/3a6c6633f155e42fd718a857903d771626afdb70",
          "width": 200
        },
        {
          "height": 48,
          "url": "https://i.scdn.co/image/91239f7eef20bc5d8df0e2b59031191ab42f22b7",
          "width": 64
        }
      ],
      "name": "Fireworks",
      "popularity": 37,
      "type": "artist",
      "uri": "spotify:artist:2FcxTTXQKgTdJzTeACMlVU"
    },
    {
      "external_urls": {
        "spotify": "https://open.spotify.com/artist/7EGdqeEDe7WMqOVyDFUYyo"
      },
      "followers": {
        "href": null,
        "total": null
      },
      "genres": [],
      "href": "https://api.spotify.com/v1/artists/7EGdqeEDe7WMqOVyDFUYyo",
      "id": "7EGdqeEDe7WMqOVyDFUYyo",
      "images": [
        {
          "height": 667,
          "url": "https://i.scdn.co/image/0ab3d675faa3798edf7681a5ade7a6e897efb298",
          "width": 1000
        },
        {
          "height": 427,
          "url": "https://i.scdn.co/image/34f1048c04e638a7c647c15b454ba23bd6f01abd",
          "width": 640
        },
        {
          "height": 133,
          "url": "https://i.scdn.co/image/cd8c6623d322add7e01c01f8ca34310d7834076e",
          "width": 200
        },
        {
          "height": 43,
          "url": "https://i.scdn.co/image/79a6df6630374a0ec4694c96cbf2a4b87051e545",
          "width": 64
        }
      ],
      "name": "Broadside",
      "popularity": 43,
      "type": "artist",
      "uri": "spotify:artist:7EGdqeEDe7WMqOVyDFUYyo"
    },
    {
      "external_urls": {
        "spotify": "https://open.spotify.com/artist/3E3xrZtBU5ORqcmX78v5YZ"
      },
      "followers": {
        "href": null,
        "total": null
      },
      "genres": [
        "pop punk"
      ],
      "href": "https://api.spotify.com/v1/artists/3E3xrZtBU5ORqcmX78v5YZ",
      "id": "3E3xrZtBU5ORqcmX78v5YZ",
      "images": [
        {
          "height": 667,
          "url": "https://i.scdn.co/image/8a4420cee8bd848622302672ede4f7e4021a1cb6",
          "width": 1000
        },
        {
          "height": 427,
          "url": "https://i.scdn.co/image/dc8cb237ef70e7110734599f9921860a3fea42b9",
          "width": 640
        },
        {
          "height": 133,
          "url": "https://i.scdn.co/image/b87989e95f533e892ed4aeaa4fff869bd8a4b420",
          "width": 200
        },
        {
          "height": 43,
          "url": "https://i.scdn.co/image/9d9d300fd130c0bb52c9ed99946cc7d8529a5d4d",
          "width": 64
        }
      ],
      "name": "The Starting Line",
      "popularity": 48,
      "type": "artist",
      "uri": "spotify:artist:3E3xrZtBU5ORqcmX78v5YZ"
    },
    {
      "external_urls": {
        "spotify": "https://open.spotify.com/artist/5ABfpj7Z00wfPiv2uW4MFm"
      },
      "followers": {
        "href": null,
        "total": null
      },
      "genres": [],
      "href": "https://api.spotify.com/v1/artists/5ABfpj7Z00wfPiv2uW4MFm",
      "id": "5ABfpj7Z00wfPiv2uW4MFm",
      "images": [
        {
          "height": 500,
          "url": "https://i.scdn.co/image/a18dddb266f23bfdeafb91f7c2860473a3f07c6b",
          "width": 750
        },
        {
          "height": 427,
          "url": "https://i.scdn.co/image/638f32bddad7ade555e35e8ca3e1fe70c7b43020",
          "width": 640
        },
        {
          "height": 133,
          "url": "https://i.scdn.co/image/996a11519d027c791e2160d618107fe9fb3ffbf4",
          "width": 200
        },
        {
          "height": 43,
          "url": "https://i.scdn.co/image/ef3ed8192ac382d9c65348ecd85e4a097b9dc09f",
          "width": 64
        }
      ],
      "name": "Knuckle Puck",
      "popularity": 52,
      "type": "artist",
      "uri": "spotify:artist:5ABfpj7Z00wfPiv2uW4MFm"
    },
    {
      "external_urls": {
        "spotify": "https://open.spotify.com/artist/0KlYEaj5sigNA1iixOstiH"
      },
      "followers": {
        "href": null,
        "total": null
      },
      "genres": [],
      "href": "https://api.spotify.com/v1/artists/0KlYEaj5sigNA1iixOstiH",
      "id": "0KlYEaj5sigNA1iixOstiH",
      "images": [
        {
          "height": 640,
          "url": "https://i.scdn.co/image/763475504e6ccc4a95f945f213ceb963bb2ad1f6",
          "width": 640
        },
        {
          "height": 300,
          "url": "https://i.scdn.co/image/1e314f71c101eaacfb6041221b65fb2743587daa",
          "width": 300
        },
        {
          "height": 64,
          "url": "https://i.scdn.co/image/b33fa996c85f27d32322b1f4d1c78dd272fe78d6",
          "width": 64
        }
      ],
      "name": "Sundressed",
      "popularity": 12,
      "type": "artist",
      "uri": "spotify:artist:0KlYEaj5sigNA1iixOstiH"
    }
  ],
  "total": 50,
  "limit": 20,
  "offset": 0,
  "href": "https://api.spotify.com/v1/me/top/artists",
  "previous": null,
  "next": "https://api.spotify.com/v1/me/top/artists?limit=20&offset=20"
}